{
  "type": "service_account",
  "project_id": "art-app-22a6c",
  "private_key_id": "81995eb3e00a3ea0f86b12b34b2afe38ed39f81b",
  "private_key": "-----BEGIN PRIVATE KEY-----\nMIIEvAIBADANBgkqhkiG9w0BAQEFAASCBKYwggSiAgEAAoIBAQCbBhYi0Pg2fBcT\npO/SANKWmeEpBKbXEFJ1cgzrV6vj9W2Qp4VpQh5+gCKh8lQxFPNkBpq5V7+Kx1+p\nk0tTNNIDIn4vVFmMD+TDySChItMuFA6TkthbJnsvpMxkfxkbq3eqjw7IabMyJJCy\nhXY7lSEAkLUl2JqHQTDTPW1eSDCeYEt04dNqrmpItb6omNq+FfkDRpac2jXFZW/6\nBYN+g396zf4W4NyLdK6iPki0M5Zb9z41V6rhUzXbu55nUDqHd91fKKV6kUuP5el9\ns2ZuisDkNbcP+xRKL4o8Ry10avZxBiWzbLu7UateP1CXZaIBBRpLzZMlfMh30UII\nrz1NfR9NAgMBAAECggEAdQQSH3O3eIEQdj6Q2+bNDurWf7zIJxxl8csGH3sM/8RZ\nUNByrrI/DGOyQKYHkQjsc3tcvTyUE7BM8FaDjCoZwE4AC7/S3Bt/JZ4i6B6+Y1C2\ndARrFdqlL6BovA8IJ8+1Q2Q612KZ5ead5nNBfNYjlCam5gtrEV9O+JSsgndhY5nF\neErEUmbWOgQV/bc66HJfpnRAJN9ggnGluX/CwRkOJL4n/RGHFtrwlX+x/W2yaMcI\nIiRXf88jobPQh8TsI3vsNSFUD37oCMGNEhekaRQFdZBqbAsO3P2N34/hZhvSLV0r\nBHOz9yykIwZdNRpTTeqMCNGzlEeduGdpgCN5PXW3YQKBgQDJJ6gYj2G6N4I7Korp\nVvBjhxPqkd0/oBPheCMtvC+fgSbZbBn4DADQtJLppZaPt1DxQyvr8KuW48jvU3D5\nG6v+B/9cHZQB2pME6sVEWnz4yjczjs4ZtO6cQF8wnV6eu0UpwhTZr5GQ9lj5GTgE\nqjUFjUXc86obm1XmUyzUVi73WQKBgQDFSonZwWSVHJGpX8ZO1/hELVZXBdy62h7W\nBkcZuE9V0LJdKodH+rGvR3Ae5bZOdB8q15RZYXcuW2sxIwb2prPeDTf81j0k596o\ntj2M8/jXSszEUuDHL2HmZZx1l7H7L5oDxkC7td+/FHYZ1LIPdL7b6TWZPFO9GvgD\nW/pD6JPdFQKBgGUFXn0fHPRZRjUSk3rGJ6nEP7NRF+0JJpLYM8qXNM+FHA6bJJuW\n453s4c8nUurQJH1Vv6wZTQNVWCchH55rUEAeohcP37HipG0WvoUqcJK9c2WYNVdh\nr2eXSHbwwYE0CXMEPlZovtEvdtV63dAx7rjgDxL86BQ/Oa+XW+8zbRjZAoGACeRg\n4RA3UNqr2wg4Uz+07QYw7BAZLy08mpKaAgohwDXEm7NEMTG6swUr9ACkkW51GZrR\nj2G5rhNbXo1ZDgjxv9J92imLy0vs+BybHXQmJ/VSKw3Uw2f2yqyRmbvPar7KRCIu\noLrPyy7ldQobG3dJEpGw5EwIDtVJVjHIbJs+vrkCgYBMh6JIyKBVtFPKKtZDV+YT\nrfDbVZQDonwK7bEPZcRXoydkqBlytS1AyEBW7nWw106kXycSEJWeJDKKgCH58Pi9\n7x6O/4oR8FfBVYuIYzQaR+HOG1LGZoz4oy3Lkb0kWSgDLrSadrOU9W54ho1EbK27\nT2U67qGQLGChl6Wnu65a5A==\n-----END PRIVATE KEY-----\n",
  "client_email": "firebase-adminsdk-xxzfj@art-app-22a6c.iam.gserviceaccount.com",
  "client_id": "113705124989466820935",
  "auth_uri": "https://accounts.google.com/o/oauth2/auth",
  "token_uri": "https://accounts.google.com/o/oauth2/token",
  "auth_provider_x509_cert_url": "https://www.googleapis.com/oauth2/v1/certs",
  "client_x509_cert_url": "https://www.googleapis.com/robot/v1/metadata/x509/firebase-adminsdk-xxzfj%40art-app-22a6c.iam.gserviceaccount.com"
}
